Tag	Value
altitude	0
biome	saline water habitat
continent	South America
country	Ecuador
depth	2
email	dlgosdata@venterinstitute.org
firstname	J. Craig
geodetic_system	WGS 84
habitat	Open Ocean
humidity	 
lastname	Venter
latitude	1.2642
location	134 miles NE of Galapagos
longitude	-90.295
metagenome_name	GS026 Shotgun - Open Ocean - Galapagos Islands - 134 miles NE of Galapagos - Ecuador
organization	J. Craig Venter Institute
organization_address	"9704 Medical Center Drive - Rockville, MD 20850"
organization_country	 
organization_url	http://www.jcvi.org/cms/research/projects/gos
pH	 
project_name	Global Ocean Sampling Expidition
region	Galapagos Islands
salinity	32.6
sampling_date	20040201
sampling_date_day	1
sampling_date_month	2
sampling_date_year	2004
sampling_time	 
sampling_timezone	 
temperature	27.8
